{
    "message": [
      {
        "date": 1490406944006,
        "text": "Привет, как дела?",
        "type": "FROM"
      },
      {
        "date": 1490406944007,
        "text": "Привет, у меня всё хорошо! А у тебя?",
        "type": "TO"
      },
      {
        "date": 1490406944008,
        "text": "О, у меня всё просто замечательно! Я теперь живу на Кипре и мне здесь всё очень нравится, особенно солнце и фрукты!",
        "type": "FROM"
      },
      {
        "date": 1490406944009,
        "text": "Ну ничего себе, а как ты туда попал??",
        "type": "TO"
      },
      {
        "date": 1490406944010,
        "text": "Да проще простого! Просто выучил React! давай, переезжай ко мне тоже!",
        "type": "FROM"
      },
      {
        "date": 1490406944006,
        "text": "Привет, как дела?",
        "type": "FROM"
      },
      {
        "date": 1490406944007,
        "text": "Привет, у меня всё хорошо! А у тебя?",
        "type": "TO"
      },
      {
        "date": 1490406944008,
        "text": "О, у меня всё просто замечательно! Я теперь живу на Кипре и мне здесь всё очень нравится, особенно солнце и фрукты!",
        "type": "FROM"
      },
      {
        "date": 1490406944009,
        "text": "Ну ничего себе, а как ты туда попал??",
        "type": "TO"
      },
      {
        "date": 1490406944010,
        "text": "Да проще простого! Просто выучил React! давай, переезжай ко мне тоже!",
        "type": "FROM"
      },
      {
        "date": 1490406944006,
        "text": "Привет, как дела?",
        "type": "FROM"
      },
      {
        "date": 1490406944007,
        "text": "Привет, у меня всё хорошо! А у тебя?",
        "type": "TO"
      },
      {
        "date": 1490406944008,
        "text": "О, у меня всё просто замечательно! Я теперь живу на Кипре и мне здесь всё очень нравится, особенно солнце и фрукты!",
        "type": "FROM"
      },
      {
        "date": 1490406944009,
        "text": "Ну ничего себе, а как ты туда попал??",
        "type": "TO"
      },
      {
        "date": 1490406944010,
        "text": "Да проще простого! Просто выучил React! давай, переезжай ко мне тоже!",
        "type": "FROM"
      }
    ]
}